{
  "integrationFolder": "cypress/integration",
  "supportFile": "cypress/support/index.ts",
  "videosFolder": "cypress/videos",
  "screenshotsFolder": "cypress/screenshots",
  "pluginsFile": "cypress/plugins/index.ts",
  "fixturesFolder": "cypress/fixtures",
  "baseUrl": "http://164.92.74.227:4200/",
  "projectId": "dnzksf"
}
